# 1_N_BOL_AB_420outA.xlsx
1.4379 [percent at] 
14.3788 [GWd/tHM] 
DLA EOC trzeba to oblicztc inaczej 
0.017491 - licznik [0.012164 - mianownik [mianownik z obliczen dla swiezego paliwa w stanie BOL lub BOC 
CR poczatkowe: 0.83591
CR koncowe: 0.72694
