# 1_N_BOL_MEZ_280outA.xlsx
4.0055 [percent at] 
40.0555 [GWd/tHM] 
DLA EOC trzeba to oblicztc inaczej 
0.037379 - licznik [0.0093318 - mianownik [mianownik z obliczen dla swiezego paliwa w stanie BOL lub BOC 
CR poczatkowe: 0.52422
CR koncowe: 0.52359
