# 1_N_BOL_AB_280outA.xlsx
0.82017 [percent at] 
8.2017 [GWd/tHM] 
DLA EOC trzeba to oblicztc inaczej 
0.0099769 - licznik [0.012164 - mianownik [mianownik z obliczen dla swiezego paliwa w stanie BOL lub BOC 
CR poczatkowe: 0.83591
CR koncowe: 0.75624
