# 2_N_BOL_HEZ_140outA.xlsx
1.4466 [percent at] 
14.4659 [GWd/tHM] 
DLA EOC trzeba to oblicztc inaczej 
0.013495 - licznik [0.0093292 - mianownik [mianownik z obliczen dla swiezego paliwa w stanie BOL lub BOC 
CR poczatkowe: 0.51821
CR koncowe: 0.51683
