# 2_N_BOL_IBZ_420outA.xlsx
2.3978 [percent at] 
23.9783 [GWd/tHM] 
DLA EOC trzeba to oblicztc inaczej 
0.021381 - licznik [0.0089167 - mianownik [mianownik z obliczen dla swiezego paliwa w stanie BOL lub BOC 
CR poczatkowe: 0.84227
CR koncowe: 0.70013
