      94238.73c  1.026549E-004
      94239.73c  1.138537E-003
      94240.73c  5.972652E-004
      94241.73c  1.866454E-005
      94242.73c  9.332268E-006
      92234.73c  2.314402E-007
      92235.73c  3.054265E-005
      92236.73c  7.540473E-007
      92238.73c  7.434286E-003